…
<img src="{{< blogdown/postref >}}index_files/figure-html/unnamed-chunk-18-1.png" width="672" />

Create a tibble or data.frame to store Bio-ORACLE marine data for each point.

marine.data = tibble(ID = 1:nrow(random.pts@coords),
                     Lon = random.pts$x,
                     Lat = random.pts$y
                     )
marine.data
## # A tibble: 100 x 3
##       ID     Lon   Lat
##    <int>   <dbl> <dbl>
##  1     1   2.21   52.3
##  2     2  -0.125  56.3
##  3     3  -9.88   53.1
##  4     4  -3.62   49.9
##  5     5 -10.6    55.0
##  6     6  -3.71   53.7
##  7     7 -10.2    53.5
##  8     8  -3.96   51.4
##  9     9  -7.88   51.0
## 10    10 -10.8    50.3
## # ... with 90 more rows
…
Extract data from each raster layer for each point and store in a list.

store_data = list()
for (i in 1:nlayers(rasters)){
  store_data[[i]] = raster::extract(rasters[[i]], random.pts)
}

Add the extracted data as new columns to marine.data.

# Name variables in the list and then combine data
names(store_data) = names(rasters)
marine.data = bind_cols(marine.data, as_tibble(store_data))
marine.data
## # A tibble: 100 x 40
##       ID     Lon   Lat MS_bathy_5m BO21_tempmean_bdmean BO21_temprange_bdmean
##    <int>   <dbl> <dbl>       <dbl>                <dbl>                 <dbl>
##  1     1   2.21   52.3         -37                10.2                  10.2 
##  2     2  -0.125  56.3         -89                 7.92                  7.92
##  3     3  -9.88   53.1         -61                10.2                  10.2 
##  4     4  -3.62   49.9         -64                11.3                  11.3 
##  5     5 -10.6    55.0       -2101                 3.32                  3.32
##  6     6  -3.71   53.7         -32                11.0                  11.0 
##  7     7 -10.2    53.5         -21                11.4                  11.4 
##  8     8  -3.96   51.4         -28                11.8                  11.8 
##  9     9  -7.88   51.0        -103                10.4                  10.4 
## 10    10 -10.8    50.3        -187                10.8                  10.8 
## # ... with 90 more rows, and 34 more variables: BO21_tempmean_ss <dbl>,
## #   BO21_temprange_ss <dbl>, BO21_RCP26_2050_tempmean_bdmean <dbl>,
## #   BO21_RCP45_2050_tempmean_bdmean <dbl>,
## #   BO21_RCP60_2050_tempmean_bdmean <dbl>,
## #   BO21_RCP85_2050_tempmean_bdmean <dbl>,
## #   BO21_RCP26_2100_tempmean_bdmean <dbl>,
## #   BO21_RCP45_2100_tempmean_bdmean <dbl>, ...
…
